<?xml version="1.0" encoding="UTF-8" standalone="no"?>
<!-- Created with Inkscape (http://www.inkscape.org/) -->

<svg
   width="210mm"
   height="297mm"
   viewBox="0 0 210 297"
   version="1.1"
   id="svg121"
   xml:space="preserve"
   sodipodi:docname="rebel-logo.svg"
   inkscape:version="1.2.1 (9c6d41e410, 2022-07-14)"
   xmlns:inkscape="http://www.inkscape.org/namespaces/inkscape"
   xmlns:sodipodi="http://sodipodi.sourceforge.net/DTD/sodipodi-0.dtd"
   xmlns="http://www.w3.org/2000/svg"
   xmlns:svg="http://www.w3.org/2000/svg"><sodipodi:namedview
     id="namedview123"
     pagecolor="#ffffff"
     bordercolor="#666666"
     borderopacity="1.0"
     inkscape:showpageshadow="2"
     inkscape:pageopacity="0.0"
     inkscape:pagecheckerboard="0"
     inkscape:deskcolor="#d1d1d1"
     inkscape:document-units="mm"
     showgrid="false"
     inkscape:zoom="0.72960859"
     inkscape:cx="243.96643"
     inkscape:cy="363.89374"
     inkscape:window-width="1920"
     inkscape:window-height="997"
     inkscape:window-x="0"
     inkscape:window-y="27"
     inkscape:window-maximized="1"
     inkscape:current-layer="layer1"
     showguides="true"><sodipodi:guide
       position="-78.46554,103.14396"
       orientation="0,-1"
       id="guide1065"
       inkscape:locked="false" /><sodipodi:guide
       position="9.4876633,267.2549"
       orientation="0.70710678,-0.70710678"
       id="guide1067"
       inkscape:locked="false" /><sodipodi:guide
       position="90.294247,291.12843"
       orientation="1,0"
       id="guide1071"
       inkscape:locked="false" /></sodipodi:namedview><defs
     id="defs118" /><g
     inkscape:label="Layer 1"
     inkscape:groupmode="layer"
     id="layer1"><path
       id="path191-3-7"
       style="fill:#000000;stroke:#ff0000;stroke-width:1;stroke-dasharray:none;stroke-opacity:1"
       d="m 90.259738,176.25164 c 21.645112,-0.8756 41.577812,-8.6509 55.353972,-22.19918 36.30503,-35.08677 26.55397,-98.747729 -14.54588,-124.73792 11.62224,20.256358 21.77563,45.909703 12.02915,64.147473 -6.20195,10.833597 -15.76881,17.361177 -24.72161,16.867847 -4.27282,-0.23545 -7.72201,-1.65453 -10.69754,-4.40123 -3.68956,-3.40582 -6.21446,-8.950766 -7.10322,-15.599427 -0.47436,-3.548642 -0.15063,-10.566522 0.66793,-14.479501 2.52685,-12.079091 9.28598,-21.653931 17.9586,-25.43974 l 1.79701,-0.784441 -4.67416,-5.18147 -4.67416,-5.18146 -2.28223,1.46348 c -5.00833,3.21159 -7.76489,5.75668 -10.152072,9.37326 l -1.39057,2.10672 c -0.146331,-3.630292 0.842232,-7.424494 1.85093,-10.50925 1.417942,-3.886805 2.959762,-6.868 4.944972,-10.164132 L 90.039285,15.543089"
       sodipodi:nodetypes="ccccssssscccsscccc" /><path
       id="path191-3-7-5"
       style="fill:#000000;stroke:#ff0000;stroke-width:1;stroke-dasharray:none;stroke-opacity:1"
       d="m 89.662391,175.70332 c -10.772232,-0.40207 -25.081662,-2.87707 -34.949582,-7.5463 -8.14518,-4.05284 -13.86536,-8.16064 -20.40439,-14.65287 -7.03817,-6.9878 -11.24307,-12.76221 -15.31713,-21.03437 -4.34262,-8.81745 -6.68731,-16.62692 -7.82956,-26.07798 -0.57787,-4.78127 -0.58625,-14.28748 -0.0167,-18.926932 6.52657,-24.869609 18.87643,-47.359778 37.70927,-58.698641 -11.62224,20.256358 -21.77563,45.909703 -12.02915,64.147473 6.20195,10.8336 15.76881,17.36118 24.72161,16.86785 4.27282,-0.23545 7.72201,-1.65453 10.69754,-4.40123 3.68956,-3.40582 6.21446,-8.950769 7.10322,-15.59943 0.47436,-3.548642 0.15063,-10.566522 -0.66793,-14.479501 -2.52685,-12.079091 -9.28598,-21.653931 -17.9586,-25.43974 l -1.79701,-0.784441 4.67416,-5.18147 4.67416,-5.18146 2.28223,1.46348 c 5.00833,3.21159 7.76489,5.75668 10.152072,9.37326 l 1.39057,2.10672 c 0.146331,-3.630292 -0.842232,-7.424494 -1.85093,-10.50925 -1.417942,-3.886805 -2.959762,-6.868 -4.944972,-10.164132 l 14.581575,-15.98958"
       sodipodi:nodetypes="ccssscccssssscccsscccc" /></g></svg>
